{
  "allocations": [
    {
      "name": "string",
      "y": 0
    }
  ],
  "balances": {
    "header": [
      "Asset",
      "Total",
      "BTC_Rate",
      "BTC_Value",
      "Fiat_Value",
      "1d_BTC_Change",
      "1w_BTC_Change",
      "1m_BTC_Change",
      "Percent_of_Portfolio",
      "Target",
      "Percent_Off_Goal"
    ],
    "values": [
      [
        "string",
        0,
        0,
        0,
        0,
        0,
        0,
        0,
        0,
        0,
        0
      ]
    ]
  },
  "total": {
    "btc": 0,
    "fiat": 0
  }
}