<svg xmlns="http://www.w3.org/2000/svg" xmlns:xlink="http://www.w3.org/1999/xlink" viewBox="0 0 50 50" version="1.1" width="100" height="100" style="fill: rgb(0, 0, 0);">
<g id="surface1">
<path style=" " d="M 4 0 L 4 50 L 46 50 L 46 0 Z M 6 2 L 44 2 L 44 48 L 6 48 Z M 13 11 L 13 13 L 37 13 L 37 11 Z M 13 25 L 13 27 L 17 27 L 17 25 Z M 20 25 L 20 27 L 37 27 L 37 25 Z M 13 31 L 13 33 L 17 33 L 17 31 Z M 20 31 L 20 33 L 37 33 L 37 31 Z M 13 37 L 13 39 L 17 39 L 17 37 Z M 20 37 L 20 39 L 37 39 L 37 37 Z "/>
</g>
</svg>